(texnumber character left right width height horizontal_advance vertical_advance h_bearing_x h_bearing_y v_bearing_x v_bearing_y left top right bottom) 
version: 1
16
1
fonts/default_0.png

0 32 0 0 0 0 7 0 0 0 8 8 8 8
0 33 0.046875 0.125 1 8 7 0 3 8 23 4 24 12
0 34 0.03125 0.140625 3 3 7 0 2 9 38 6 41 9
0 35 0 0.125 7 8 7 0 0 8 52 4 59 12
0 36 0.015625 0.125 5 9 7 0 1 8 69 3 74 12
0 37 0 0.125 7 8 7 0 0 8 84 4 91 12
0 38 0.015625 0.125 6 8 7 0 1 8 101 4 107 12
0 39 0.046875 0.140625 1 3 7 0 3 9 119 6 120 9
0 40 0.03125 0.140625 3 11 7 0 2 9 134 2 137 13
0 41 0.03125 0.140625 3 11 7 0 2 9 150 2 153 13
0 42 0.015625 0.09375 5 5 7 0 1 6 165 5 170 10
0 43 0.015625 0.09375 5 5 7 0 1 6 181 5 186 10
0 44 0.015625 0.03125 2 4 7 0 1 2 199 6 201 10
0 45 0.015625 0.0625 5 1 7 0 1 4 213 7 218 8
0 46 0.03125 0.03125 1 2 7 0 2 2 231 7 232 9
0 47 0.015625 0.140625 5 10 7 0 1 9 245 3 250 13
0 48 0.015625 0.125 5 8 7 0 1 8 5 20 10 28
0 49 0.015625 0.125 5 8 7 0 1 8 21 20 26 28
0 50 0.015625 0.125 5 8 7 0 1 8 37 20 42 28
0 51 0.015625 0.125 5 8 7 0 1 8 53 20 58 28
0 52 0.015625 0.125 6 8 7 0 1 8 69 20 75 28
0 53 0.015625 0.125 5 8 7 0 1 8 85 20 90 28
0 54 0.015625 0.125 5 8 7 0 1 8 101 20 106 28
0 55 0.015625 0.125 5 8 7 0 1 8 117 20 122 28
0 56 0.015625 0.125 5 8 7 0 1 8 133 20 138 28
0 57 0.015625 0.125 5 8 7 0 1 8 149 20 154 28
0 58 0.046875 0.09375 1 6 7 0 3 6 167 21 168 27
0 59 0.015625 0.09375 2 8 7 0 1 6 183 20 185 28
0 60 0 0.09375 6 5 7 0 0 6 197 21 203 26
0 61 0.015625 0.078125 6 3 7 0 1 5 213 22 219 25
0 62 0.015625 0.09375 6 5 7 0 1 6 229 21 235 26
0 63 0.015625 0.125 5 8 7 0 1 8 245 20 250 28
0 64 0 0.125 7 8 7 0 0 8 4 36 11 44
0 65 0.015625 0.125 6 8 7 0 1 8 21 36 27 44
0 66 0.015625 0.125 6 8 7 0 1 8 37 36 43 44
0 67 0.015625 0.125 6 8 7 0 1 8 53 36 59 44
0 68 0.015625 0.125 6 8 7 0 1 8 69 36 75 44
0 69 0.015625 0.125 5 8 7 0 1 8 85 36 90 44
0 70 0.015625 0.125 5 8 7 0 1 8 101 36 106 44
0 71 0.015625 0.125 6 8 7 0 1 8 117 36 123 44
0 72 0.015625 0.125 6 8 7 0 1 8 133 36 139 44
0 73 0.03125 0.125 3 8 7 0 2 8 150 36 153 44
0 74 0.015625 0.125 4 8 7 0 1 8 166 36 170 44
0 75 0.015625 0.125 6 8 7 0 1 8 181 36 187 44
0 76 0.015625 0.125 5 8 7 0 1 8 197 36 202 44
0 77 0 0.125 7 8 7 0 0 8 212 36 219 44
0 78 0.015625 0.125 6 8 7 0 1 8 229 36 235 44
0 79 0.015625 0.125 6 8 7 0 1 8 245 36 251 44
0 80 0.015625 0.125 5 8 7 0 1 8 5 52 10 60
0 81 0.015625 0.125 6 9 7 0 1 8 21 51 27 60
0 82 0.015625 0.125 6 8 7 0 1 8 37 52 43 60
0 83 0.015625 0.125 6 8 7 0 1 8 53 52 59 60
0 84 0 0.125 7 8 7 0 0 8 68 52 75 60
0 85 0.015625 0.125 6 8 7 0 1 8 85 52 91 60
0 86 0 0.125 7 8 7 0 0 8 100 52 107 60
0 87 0 0.125 7 8 7 0 0 8 116 52 123 60
0 88 0.015625 0.125 6 8 7 0 1 8 133 52 139 60
0 89 0 0.125 7 8 7 0 0 8 148 52 155 60
0 90 0.015625 0.125 6 8 7 0 1 8 165 52 171 60
0 91 0.03125 0.140625 3 11 7 0 2 9 182 50 185 61
0 92 0.015625 0.140625 5 10 7 0 1 9 197 51 202 61
0 93 0.03125 0.140625 3 11 7 0 2 9 214 50 217 61
0 94 0.015625 0.140625 5 6 7 0 1 9 229 53 234 59
0 95 0 0 7 1 7 0 0 0 244 55 251 56
0 96 0.03125 0.140625 2 2 7 0 2 9 7 71 9 73
0 97 0.015625 0.09375 5 6 7 0 1 6 21 69 26 75
0 98 0.015625 0.140625 5 9 7 0 1 9 37 67 42 76
0 99 0.015625 0.09375 5 6 7 0 1 6 53 69 58 75
0 100 0.015625 0.140625 5 9 7 0 1 9 69 67 74 76
0 101 0.015625 0.09375 5 6 7 0 1 6 85 69 90 75
0 102 0.015625 0.140625 5 9 7 0 1 9 101 67 106 76
0 103 0.015625 0.09375 5 9 7 0 1 6 117 67 122 76
0 104 0.015625 0.140625 5 9 7 0 1 9 133 67 138 76
0 105 0.03125 0.140625 2 9 7 0 2 9 151 67 153 76
0 106 0.015625 0.140625 4 11 7 0 1 9 166 66 170 77
0 107 0.015625 0.140625 5 9 7 0 1 9 181 67 186 76
0 108 0.03125 0.140625 2 9 7 0 2 9 199 67 201 76
0 109 0 0.09375 7 6 7 0 0 6 212 69 219 75
0 110 0.015625 0.09375 5 6 7 0 1 6 229 69 234 75
0 111 0.015625 0.09375 5 6 7 0 1 6 245 69 250 75
0 112 0.015625 0.09375 5 9 7 0 1 6 5 83 10 92
0 113 0.015625 0.09375 5 9 7 0 1 6 21 83 26 92
0 114 0.015625 0.09375 5 6 7 0 1 6 37 85 42 91
0 115 0.015625 0.09375 5 6 7 0 1 6 53 85 58 91
0 116 0.03125 0.125 4 8 7 0 2 8 70 84 74 92
0 117 0.015625 0.09375 5 6 7 0 1 6 85 85 90 91
0 118 0.015625 0.09375 5 6 7 0 1 6 101 85 106 91
0 119 0 0.09375 7 6 7 0 0 6 116 85 123 91
0 120 0.015625 0.09375 5 6 7 0 1 6 133 85 138 91
0 121 0.015625 0.09375 5 9 7 0 1 6 149 83 154 92
0 122 0.015625 0.09375 5 6 7 0 1 6 165 85 170 91
0 123 0.015625 0.140625 5 11 7 0 1 9 181 82 186 93
0 124 0.046875 0.140625 1 11 7 0 3 9 199 82 200 93
0 125 0.015625 0.140625 5 11 7 0 1 9 213 82 218 93
0 126 0 0.078125 7 2 7 0 0 5 228 87 235 89
0 127 0 0 0 0 7 0 0 0 248 88 248 88
0 129 0 0 0 0 7 0 0 0 8 104 8 104
0 130 0.03125 0.03125 2 4 7 0 2 2 23 102 25 106
0 131 0.015625 0.140625 5 11 7 0 1 9 37 98 42 109
0 132 0.03125 0.03125 3 3 7 0 2 2 54 102 57 105
0 133 0.015625 0.015625 5 1 7 0 1 1 69 103 74 104
0 134 0.015625 0.140625 5 9 7 0 1 9 85 99 90 108
0 135 0.015625 0.140625 5 9 7 0 1 9 101 99 106 108
0 136 0.015625 0.140625 5 3 7 0 1 9 117 102 122 105
0 137 0.015625 0.125 6 8 7 0 1 8 133 100 139 108
0 138 0.015625 0.15625 6 10 7 0 1 10 149 99 155 109
0 139 0.015625 0.09375 3 5 7 0 1 6 166 101 169 106
0 140 0 0.125 7 8 7 0 0 8 180 100 187 108
0 141 0 0 0 0 7 0 0 0 200 104 200 104
0 142 0.015625 0.15625 6 10 7 0 1 10 213 99 219 109
0 143 0 0 0 0 7 0 0 0 232 104 232 104
0 144 0 0 0 0 7 0 0 0 248 104 248 104
0 145 0.046875 0.140625 2 3 7 0 3 9 7 118 9 121
0 146 0.03125 0.140625 2 3 7 0 2 9 23 118 25 121
0 147 0.03125 0.140625 4 3 7 0 2 9 38 118 42 121
0 148 0.015625 0.140625 4 3 7 0 1 9 54 118 58 121
0 149 0.015625 0.09375 5 5 7 0 1 6 69 117 74 122
0 150 0.015625 0.0625 5 1 7 0 1 4 85 119 90 120
0 151 0 0.0625 7 1 7 0 0 4 100 119 107 120
0 152 0.015625 0.125 4 2 7 0 1 8 118 119 122 121
0 153 0 0.125 7 4 7 0 0 8 132 118 139 122
0 154 0.015625 0.140625 5 9 7 0 1 9 149 115 154 124
0 155 0.015625 0.09375 3 5 7 0 1 6 166 117 169 122
0 156 0 0.09375 7 6 7 0 0 6 180 117 187 123
0 157 0 0 0 0 7 0 0 0 200 120 200 120
0 158 0.015625 0.140625 5 9 7 0 1 9 213 115 218 124
0 159 0 0.140625 7 9 7 0 0 9 228 115 235 124
